Access Wideband Audiology Immitance database using R and dplyr
…
Lets explore the Subjects table.

Subject %>% 
  summarise(total = n())

## # Source:   lazy query [?? x 1]
## # Database: mysql 5.5.57-0ubuntu0.14.04.1 [waiuser@scidb.smith.edu:/wai]
##   total
##   <dbl>
## 1   394

Subject %>% 
  collect()  # be careful with collect() with large tables!

## # A tibble: 394 x 12
##       Identifier Sub_Number Session_Total   Age Female  Race Ethnicity
##            <chr>      <chr>         <int> <int>  <int> <int>     <int>
##  1 Rosowski_2012          3             1    30      1     5         2
##  2 Rosowski_2012          6             1    29      0     5         2
##  3 Rosowski_2012         11             1    64      1     5         2
##  4 Rosowski_2012         12             1    42      1     5         2
##  5 Rosowski_2012         14             1    24      0     5         2
##  6 Rosowski_2012         15             1    32      1     5         2
##  7 Rosowski_2012         17             1    22      0     5         2
##  8 Rosowski_2012         18             1    33      1     5         2
##  9 Rosowski_2012         21             1    36      1     3         2
## 10 Rosowski_2012         22             1    33      0     5         2
## # ... with 384 more rows, and 5 more variables: Left_Ear_Status <int>,
## #   Right_Ear_Status <int>, Left_Ear_Area <dbl>, Right_Ear_Area <dbl>,
## #   Sub_Notes <chr>
…
